week003
…
 d

## # A tibble: 213 x 23
##    Scientific_Name   Family   Genus   Species Brain_Size_Speci~ Body_mass_male_~
##    <chr>             <chr>    <chr>   <chr>               <dbl>            <dbl>
##  1 Allenopithecus_n~ Cercopi~ Alleno~ nigrov~              58.0             6130
##  2 Allocebus_tricho~ Cercopi~ Alloce~ tricho~              NA                 92
##  3 Alouatta_belzebul Atelidae Alouat~ belzeb~              52.8             7270
##  4 Alouatta_caraya   Atelidae Alouat~ caraya               52.6             6525
##  5 Alouatta_guariba  Atelidae Alouat~ guariba              51.7             5800
##  6 Alouatta_palliata Atelidae Alouat~ pallia~              49.9             7150
##  7 Alouatta_pigra    Atelidae Alouat~ pigra                51.1            11400
##  8 Alouatta_senicul~ Atelidae Alouat~ senicu~              55.2             6690
##  9 Aotus_azarai      Cebidae  Aotus   azarai               20.7             1180
## 10 Aotus_brumbacki   Cebidae  Aotus   brumba~              NA                 NA
## # ... with 203 more rows, and 17 more variables: Body_mass_female_mean <dbl>,
## #   MeanGroupSize <dbl>, AdultMales <dbl>, AdultFemale <dbl>,
## #   GR_MidRangeLat_dd <dbl>, Precip_Mean_mm <dbl>, Temp_Mean_degC <dbl>,
## #   HomeRange_km2 <dbl>, DayLength_km <dbl>, Fruit <dbl>, Leaves <chr>,
## #   Fauna <chr>, Canine_Dimorphism <dbl>, Feed <dbl>, Move <dbl>, Rest <dbl>,
## #   Social <dbl>
…
